<?xml version="1.0" encoding="UTF-8" standalone="no"?>
<svg width="297px" height="130px" viewBox="0 0 297 130" version="1.1" xmlns="http://www.w3.org/2000/svg" xmlns:xlink="http://www.w3.org/1999/xlink">
    <!-- Generator: Sketch 3.8.3 (29802) - http://www.bohemiancoding.com/sketch -->
    <title>Group 5</title>
    <desc>Created with Sketch.</desc>
    <defs>
        <polygon id="path-1" points="17.6000001 0 32.1134752 25.0995671 46.4 0 60.8 0 31.8865248 47.6103896 3.2 0"></polygon>
        <filter x="-50%" y="-50%" width="200%" height="200%" filterUnits="objectBoundingBox" id="filter-2">
            <feMorphology radius="1" operator="dilate" in="SourceAlpha" result="shadowSpreadOuter1"></feMorphology>
            <feOffset dx="0" dy="2" in="shadowSpreadOuter1" result="shadowOffsetOuter1"></feOffset>
            <feGaussianBlur stdDeviation="21" in="shadowOffsetOuter1" result="shadowBlurOuter1"></feGaussianBlur>
            <feColorMatrix values="0 0 0 0 0   0 0 0 0 0   0 0 0 0 0  0 0 0 0.123443161 0" type="matrix" in="shadowBlurOuter1"></feColorMatrix>
        </filter>
    </defs>
    <g id="Page-1" stroke="none" stroke-width="1" fill="none" fill-rule="evenodd">
        <g id="wbsite" transform="translate(-581.000000, -468.000000)">
            <g id="Group-5" transform="translate(617.000000, 509.000000)">
                <g id="Group-2-Copy">
                    <polygon id="v" fill="#FFFFFF" points="16.64 0 32 25.7748918 47.36 0 64 0 31.8865248 52 0 0"></polygon>
                    <g id="v-copy">
                        <use fill="white" fill-opacity="1" filter="url(#filter-2)" xlink:href="#path-1"></use>
                        <use fill="#FFFFFF" fill-rule="evenodd" xlink:href="#path-1"></use>
                        <use fill="white" fill-opacity="1" xlink:href="#path-1"></use>
                    </g>
                </g>
                <path d="M94.2177734,36.2324219 C94.0712883,36.378907 93.8613295,36.4521484 93.5878906,36.4521484 C93.3242174,36.4521484 93.1093758,36.3691415 92.9433594,36.203125 C92.8749997,36.1347653 92.826172,36.0664066 92.796875,35.9980469 L86.0585938,21.3056641 C86.0195311,21.2080073 86,21.090821 86,20.9541016 C86,20.700194 86.0878897,20.4853524 86.2636719,20.3095703 C86.439454,20.1337882 86.6542956,20.0458984 86.9082031,20.0458984 C87.1621106,20.0458984 87.381835,20.1289054 87.5673828,20.2949219 C87.6259769,20.3535159 87.6796873,20.4316401 87.7285156,20.5292969 L93.5878906,33.3466797 L99.4472656,20.5292969 C99.4863283,20.4511715 99.5400387,20.37793 99.6083984,20.3095703 C99.7939462,20.1337882 100.013671,20.0458984 100.267578,20.0458984 C100.521486,20.0458984 100.738769,20.1313468 100.919434,20.3022461 C101.100099,20.4731454 101.19043,20.6904284 101.19043,20.9541016 C101.19043,21.0810553 101.166016,21.1982417 101.117188,21.3056641 L94.3789062,35.9980469 C94.3398436,36.0859379 94.2861332,36.1640622 94.2177734,36.2324219 L94.2177734,36.2324219 Z M128.109375,27.3408203 C127.835936,25.8857349 127.225591,24.684575 126.27832,23.7373047 C125.028314,22.4872984 123.524423,21.8623047 121.766602,21.8623047 C120.00878,21.8623047 118.504889,22.4872984 117.254883,23.7373047 C116.317378,24.6748094 115.70215,25.8759692 115.40918,27.3408203 L128.109375,27.3408203 Z M126.439453,32.921875 C126.693361,32.921875 126.908202,33.0122061 127.083984,33.1928711 C127.259767,33.3735361 127.347656,33.590819 127.347656,33.8447266 C127.347656,34.0986341 127.269532,34.3085929 127.113281,34.4746094 C125.589836,35.7929753 123.807627,36.4521484 121.766602,36.4521484 C119.500965,36.4521484 117.567391,35.6513752 115.96582,34.0498047 C114.36425,32.4482342 113.563477,30.5146598 113.563477,28.2490234 C113.563477,25.9833871 114.36425,24.0498127 115.96582,22.4482422 C117.567391,20.8466717 119.500965,20.0458984 121.766602,20.0458984 C124.032238,20.0458984 125.965812,20.8466717 127.567383,22.4482422 C129.168953,24.0498127 129.969727,25.9833871 129.969727,28.2490234 C129.969727,28.502931 129.881837,28.7177726 129.706055,28.8935547 C129.530273,29.0693368 129.315431,29.1572266 129.061523,29.1572266 L115.40918,29.1572266 C115.70215,30.6220776 116.317378,31.8232375 117.254883,32.7607422 C118.504889,34.0107484 120.00878,34.6357422 121.766602,34.6357422 C122.567387,34.6357422 123.309567,34.506349 123.993164,34.2475586 C124.676761,33.9887682 125.301755,33.6152368 125.868164,33.1269531 C126.034181,32.9902337 126.224608,32.921875 126.439453,32.921875 L126.439453,32.921875 Z M142.328125,20.9541016 C142.328125,20.700194 142.416015,20.4853524 142.591797,20.3095703 C142.767579,20.1337882 142.982421,20.0458984 143.236328,20.0458984 C143.490236,20.0458984 143.705077,20.1337882 143.880859,20.3095703 C144.056642,20.4853524 144.144531,20.700194 144.144531,20.9541016 L144.144531,22.6533203 C145.941415,20.9150304 147.865224,20.0458984 149.916016,20.0458984 C152.025401,20.0458984 153.812493,20.7880785 155.277344,22.2724609 C156.771492,23.7568434 157.518555,25.5488176 157.518555,27.6484375 L157.518555,35.5439453 C157.518555,35.7978528 157.428224,36.0126944 157.247559,36.1884766 C157.066894,36.3642587 156.849611,36.4521484 156.595703,36.4521484 C156.341796,36.4521484 156.126954,36.3642587 155.951172,36.1884766 C155.77539,36.0126944 155.6875,35.7978528 155.6875,35.5439453 L155.6875,27.6484375 C155.6875,26.0371013 155.121099,24.679693 153.988281,23.5761719 C152.855463,22.433588 151.498055,21.8623047 149.916016,21.8623047 C148.333976,21.8623047 146.971685,22.433588 145.829102,23.5761719 C144.706049,24.6894587 144.144531,26.046867 144.144531,27.6484375 L144.144531,35.5439453 C144.144531,35.7978528 144.056642,36.0126944 143.880859,36.1884766 C143.705077,36.3642587 143.490236,36.4521484 143.236328,36.4521484 C142.982421,36.4521484 142.767579,36.3642587 142.591797,36.1884766 C142.416015,36.0126944 142.328125,35.7978528 142.328125,35.5439453 L142.328125,20.9541016 Z M178.124023,36.2324219 C177.977538,36.378907 177.767579,36.4521484 177.494141,36.4521484 C177.230467,36.4521484 177.015626,36.3691415 176.849609,36.203125 C176.78125,36.1347653 176.732422,36.0664066 176.703125,35.9980469 L169.964844,21.3056641 C169.925781,21.2080073 169.90625,21.090821 169.90625,20.9541016 C169.90625,20.700194 169.99414,20.4853524 170.169922,20.3095703 C170.345704,20.1337882 170.560546,20.0458984 170.814453,20.0458984 C171.068361,20.0458984 171.288085,20.1289054 171.473633,20.2949219 C171.532227,20.3535159 171.585937,20.4316401 171.634766,20.5292969 L177.494141,33.3466797 L183.353516,20.5292969 C183.392578,20.4511715 183.446289,20.37793 183.514648,20.3095703 C183.700196,20.1337882 183.919921,20.0458984 184.173828,20.0458984 C184.427736,20.0458984 184.645019,20.1313468 184.825684,20.3022461 C185.006349,20.4731454 185.09668,20.6904284 185.09668,20.9541016 C185.09668,21.0810553 185.072266,21.1982417 185.023438,21.3056641 L178.285156,35.9980469 C178.246094,36.0859379 178.192383,36.1640622 178.124023,36.2324219 L178.124023,36.2324219 Z M205.672852,21.8623047 C203.91503,21.8623047 202.411139,22.4872984 201.161133,23.7373047 C199.911127,24.9873109 199.286133,26.4912021 199.286133,28.2490234 C199.286133,30.0068447 199.911127,31.5107359 201.161133,32.7607422 C202.411139,34.0107484 203.91503,34.6357422 205.672852,34.6357422 C207.430673,34.6357422 208.934564,34.0107484 210.18457,32.7607422 C211.424811,31.5205016 212.044922,30.0166104 212.044922,28.2490234 C212.044922,26.4814365 211.424811,24.9775453 210.18457,23.7373047 C208.934564,22.4872984 207.430673,21.8623047 205.672852,21.8623047 L205.672852,21.8623047 Z M212.044922,33.4785156 C210.072256,35.4609474 207.948254,36.4521484 205.672852,36.4521484 C203.407215,36.4521484 201.473641,35.6513752 199.87207,34.0498047 C198.2705,32.4482342 197.469727,30.5146598 197.469727,28.2490234 C197.469727,25.9833871 198.2705,24.0498127 199.87207,22.4482422 C201.473641,20.8466717 203.407215,20.0458984 205.672852,20.0458984 C207.938488,20.0458984 209.872062,20.8466717 211.473633,22.4482422 C213.075203,24.0498127 213.875977,25.9833871 213.875977,28.2490234 L213.875977,35.5439453 C213.875977,35.7978528 213.788087,36.0126944 213.612305,36.1884766 C213.436523,36.3642587 213.221681,36.4521484 212.967773,36.4521484 C212.713866,36.4521484 212.496583,36.3642587 212.315918,36.1884766 C212.135253,36.0126944 212.044922,35.7978528 212.044922,35.5439453 L212.044922,33.4785156 Z M229.046875,27.9560547 L229.061523,27.9560547 C228.612302,27.7900382 228.23633,27.6264656 227.933594,27.465332 C227.630858,27.3041984 227.396485,27.1357431 227.230469,26.9599609 C226.576169,26.2861294 226.249023,25.5000045 226.249023,24.6015625 C226.249023,23.6933548 226.590817,22.8876988 227.274414,22.1845703 C228.680671,20.7587819 230.51659,20.0458984 232.782227,20.0458984 C233.99317,20.0458984 235.130854,20.3022435 236.195312,20.8149414 C237.259771,21.3276393 238.221675,22.0527297 239.081055,22.9902344 C239.188477,23.1269538 239.242188,23.2978505 239.242188,23.5029297 C239.242188,23.7568372 239.151856,23.9741202 238.971191,24.1547852 C238.790526,24.3354501 238.573243,24.4257812 238.319336,24.4257812 C238.075194,24.4257812 237.884766,24.347657 237.748047,24.1914062 L237.293945,23.7373047 C236.043939,22.4872984 234.540048,21.8623047 232.782227,21.8623047 C231.01464,21.8623047 229.593755,22.4287053 228.519531,23.5615234 C228.226561,23.903322 228.080078,24.3232397 228.080078,24.8212891 C228.099609,25.1142593 228.187499,25.368163 228.34375,25.5830078 C228.500001,25.7978526 228.729491,25.9589838 229.032227,26.0664062 L236.517578,28.5419922 L236.50293,28.5419922 C236.952151,28.7080086 237.328123,28.8715812 237.630859,29.0327148 C237.933595,29.1938485 238.163085,29.3623038 238.319336,29.5380859 C238.983402,30.2021518 239.31543,30.9882767 239.31543,31.8964844 C239.31543,32.8144577 238.968753,33.6201137 238.275391,34.3134766 C236.878899,35.7392649 235.047863,36.4521484 232.782227,36.4521484 C230.331042,36.4521484 228.231454,35.4755957 226.483398,33.5224609 C226.375976,33.3759758 226.322266,33.2001963 226.322266,32.9951172 C226.322266,32.7412097 226.410155,32.5239267 226.585938,32.3432617 C226.76172,32.1625968 226.976561,32.0722656 227.230469,32.0722656 C227.464845,32.0722656 227.660155,32.1503898 227.816406,32.3066406 L228.270508,32.7607422 C229.520514,34.0107484 231.024405,34.6357422 232.782227,34.6357422 C234.540048,34.6357422 235.951167,34.0742244 237.015625,32.9511719 C237.318361,32.6093733 237.469727,32.1894556 237.469727,31.6914062 C237.420898,31.0664031 237.103519,30.6464854 236.517578,30.4316406 L229.046875,27.9560547 Z M260.008789,34.6357422 C260.262697,34.6357422 260.47998,34.7236319 260.660645,34.8994141 C260.841309,35.0751962 260.931641,35.2900378 260.931641,35.5439453 C260.931641,35.7978528 260.841309,36.0126944 260.660645,36.1884766 C260.47998,36.3642587 260.262697,36.4521484 260.008789,36.4521484 C256.161114,36.4521484 254.237305,34.5283396 254.237305,30.6806641 L254.237305,21.8623047 L252.728516,21.8623047 C252.474608,21.8623047 252.257325,21.7744149 252.07666,21.5986328 C251.895995,21.4228507 251.805664,21.2080091 251.805664,20.9541016 C251.805664,20.700194 251.895995,20.4853524 252.07666,20.3095703 C252.257325,20.1337882 252.474608,20.0458984 252.728516,20.0458984 L254.237305,20.0458984 L254.237305,13.9082031 C254.237305,13.6542956 254.325194,13.439454 254.500977,13.2636719 C254.676759,13.0878897 254.8916,13 255.145508,13 C255.399415,13 255.616698,13.0878897 255.797363,13.2636719 C255.978028,13.439454 256.068359,13.6542956 256.068359,13.9082031 L256.068359,20.0458984 L258.807617,20.0458984 C259.061525,20.0458984 259.278808,20.1337882 259.459473,20.3095703 C259.640138,20.4853524 259.730469,20.700194 259.730469,20.9541016 C259.730469,21.2080091 259.640138,21.4228507 259.459473,21.5986328 C259.278808,21.7744149 259.061525,21.8623047 258.807617,21.8623047 L256.068359,21.8623047 L256.068359,30.6806641 C256.068359,33.317396 257.381823,34.6357422 260.008789,34.6357422 L260.008789,34.6357422 Z" id="venvast" fill="#FFFFFF"></path>
            </g>
        </g>
    </g>
</svg>